{
	"ImportPath": "tracker",
	"GoVersion": "go1.9",
	"GodepVersion": "v80",
	"Deps": [
		{
			"ImportPath": "github.com/aerospike/aerospike-client-go",
			"Comment": "v1.32.0",
			"Rev": "9701404f4c60a6ea256595d24bf318f721a7e8b8"
		},
		{
			"ImportPath": "github.com/aerospike/aerospike-client-go/internal/lua",
			"Comment": "v1.32.0",
			"Rev": "9701404f4c60a6ea256595d24bf318f721a7e8b8"
		},
		{
			"ImportPath": "github.com/aerospike/aerospike-client-go/internal/lua/resources",
			"Comment": "v1.32.0",
			"Rev": "9701404f4c60a6ea256595d24bf318f721a7e8b8"
		},
		{
			"ImportPath": "github.com/aerospike/aerospike-client-go/logger",
			"Comment": "v1.32.0",
			"Rev": "9701404f4c60a6ea256595d24bf318f721a7e8b8"
		},
		{
			"ImportPath": "github.com/aerospike/aerospike-client-go/pkg/bcrypt",
			"Comment": "v1.32.0",
			"Rev": "9701404f4c60a6ea256595d24bf318f721a7e8b8"
		},
		{
			"ImportPath": "github.com/aerospike/aerospike-client-go/pkg/ripemd160",
			"Comment": "v1.32.0",
			"Rev": "9701404f4c60a6ea256595d24bf318f721a7e8b8"
		},
		{
			"ImportPath": "github.com/aerospike/aerospike-client-go/types",
			"Comment": "v1.32.0",
			"Rev": "9701404f4c60a6ea256595d24bf318f721a7e8b8"
		},
		{
			"ImportPath": "github.com/aerospike/aerospike-client-go/types/atomic",
			"Comment": "v1.32.0",
			"Rev": "9701404f4c60a6ea256595d24bf318f721a7e8b8"
		},
		{
			"ImportPath": "github.com/aerospike/aerospike-client-go/types/particle_type",
			"Comment": "v1.32.0",
			"Rev": "9701404f4c60a6ea256595d24bf318f721a7e8b8"
		},
		{
			"ImportPath": "github.com/aerospike/aerospike-client-go/types/rand",
			"Comment": "v1.32.0",
			"Rev": "9701404f4c60a6ea256595d24bf318f721a7e8b8"
		},
		{
			"ImportPath": "github.com/aerospike/aerospike-client-go/utils/buffer",
			"Comment": "v1.32.0",
			"Rev": "9701404f4c60a6ea256595d24bf318f721a7e8b8"
		},
		{
			"ImportPath": "github.com/beorn7/perks/quantile",
			"Rev": "3a771d992973f24aa725d07868b467d1ddfceafb"
		},
		{
			"ImportPath": "github.com/bloogrox/negroni-prometheus",
			"Comment": "v0.1.1-2-gf1d9c18",
			"Rev": "f1d9c189d1cd94a4a7a8c3ba6be4da0929b071a8"
		},
		{
			"ImportPath": "github.com/caarlos0/env",
			"Comment": "v3.2.0",
			"Rev": "7cd7992b3bc86f920394f8de92c13900da1a46b7"
		},
		{
			"ImportPath": "github.com/go-redis/redis",
			"Comment": "v6.10.1",
			"Rev": "17b6cf1e5a09b11593b563b1311d45146af24b33"
		},
		{
			"ImportPath": "github.com/go-redis/redis/internal",
			"Comment": "v6.10.1",
			"Rev": "17b6cf1e5a09b11593b563b1311d45146af24b33"
		},
		{
			"ImportPath": "github.com/go-redis/redis/internal/consistenthash",
			"Comment": "v6.10.1",
			"Rev": "17b6cf1e5a09b11593b563b1311d45146af24b33"
		},
		{
			"ImportPath": "github.com/go-redis/redis/internal/hashtag",
			"Comment": "v6.10.1",
			"Rev": "17b6cf1e5a09b11593b563b1311d45146af24b33"
		},
		{
			"ImportPath": "github.com/go-redis/redis/internal/pool",
			"Comment": "v6.10.1",
			"Rev": "17b6cf1e5a09b11593b563b1311d45146af24b33"
		},
		{
			"ImportPath": "github.com/go-redis/redis/internal/proto",
			"Comment": "v6.10.1",
			"Rev": "17b6cf1e5a09b11593b563b1311d45146af24b33"
		},
		{
			"ImportPath": "github.com/go-redis/redis/internal/singleflight",
			"Comment": "v6.10.1",
			"Rev": "17b6cf1e5a09b11593b563b1311d45146af24b33"
		},
		{
			"ImportPath": "github.com/go-redis/redis/internal/util",
			"Comment": "v6.10.1",
			"Rev": "17b6cf1e5a09b11593b563b1311d45146af24b33"
		},
		{
			"ImportPath": "github.com/golang/protobuf/proto",
			"Comment": "v1.0.0-1-gbbd03ef",
			"Rev": "bbd03ef6da3a115852eaf24c8a1c46aeb39aa175"
		},
		{
			"ImportPath": "github.com/gorilla/mux",
			"Comment": "v1.1-13-g9fa818a",
			"Rev": "9fa818a44c2bf1396a17f9d5a3c0f6dd39d2ff8e"
		},
		{
			"ImportPath": "github.com/matttproud/golang_protobuf_extensions/pbutil",
			"Comment": "v1.0.0-2-gc12348c",
			"Rev": "c12348ce28de40eed0136aa2b644d0ee0650e56c"
		},
		{
			"ImportPath": "github.com/prometheus/client_golang/prometheus",
			"Comment": "v0.9.0-pre1-66-gf504d69",
			"Rev": "f504d69affe11ec1ccb2e5948127f86878c9fd57"
		},
		{
			"ImportPath": "github.com/prometheus/client_model/go",
			"Comment": "model-0.0.2-16-g99fa1f4",
			"Rev": "99fa1f4be8e564e8a6b613da7fa6f46c9edafc6c"
		},
		{
			"ImportPath": "github.com/prometheus/common/expfmt",
			"Rev": "38c53a9f4bfcd932d1b00bfc65e256a7fba6b37a"
		},
		{
			"ImportPath": "github.com/prometheus/common/internal/bitbucket.org/ww/goautoneg",
			"Rev": "38c53a9f4bfcd932d1b00bfc65e256a7fba6b37a"
		},
		{
			"ImportPath": "github.com/prometheus/common/model",
			"Rev": "38c53a9f4bfcd932d1b00bfc65e256a7fba6b37a"
		},
		{
			"ImportPath": "github.com/prometheus/procfs",
			"Rev": "780932d4fbbe0e69b84c34c20f5c8d0981e109ea"
		},
		{
			"ImportPath": "github.com/prometheus/procfs/internal/util",
			"Rev": "780932d4fbbe0e69b84c34c20f5c8d0981e109ea"
		},
		{
			"ImportPath": "github.com/prometheus/procfs/nfs",
			"Rev": "780932d4fbbe0e69b84c34c20f5c8d0981e109ea"
		},
		{
			"ImportPath": "github.com/prometheus/procfs/xfs",
			"Rev": "780932d4fbbe0e69b84c34c20f5c8d0981e109ea"
		},
		{
			"ImportPath": "github.com/sirupsen/logrus",
			"Comment": "v1.0.5-2-g90150a8",
			"Rev": "90150a8ed11b6ce285e77e8af2b0109559ce4777"
		},
		{
			"ImportPath": "github.com/streadway/amqp",
			"Rev": "d27ae102b8892a98ca4edb74539436af62577379"
		},
		{
			"ImportPath": "github.com/twinj/uuid",
			"Comment": "0.10.0-94-gb505f2c",
			"Rev": "b505f2cca343b7b21416b27b1f2ad88469800892"
		},
		{
			"ImportPath": "github.com/urfave/negroni",
			"Comment": "v0.3.0-13-g22c5532",
			"Rev": "22c5532ea862c34fdad414e90f8cc00b4f6f4cab"
		},
		{
			"ImportPath": "github.com/yuin/gopher-lua",
			"Rev": "84ea3a3c79b3c4b3b39606cc96f255cd63635ce0"
		},
		{
			"ImportPath": "github.com/yuin/gopher-lua/ast",
			"Rev": "84ea3a3c79b3c4b3b39606cc96f255cd63635ce0"
		},
		{
			"ImportPath": "github.com/yuin/gopher-lua/parse",
			"Rev": "84ea3a3c79b3c4b3b39606cc96f255cd63635ce0"
		},
		{
			"ImportPath": "github.com/yuin/gopher-lua/pm",
			"Rev": "84ea3a3c79b3c4b3b39606cc96f255cd63635ce0"
		},
		{
			"ImportPath": "golang.org/x/crypto/ssh/terminal",
			"Rev": "811831de4c4dd03a0b8737233af3b36852386373"
		},
		{
			"ImportPath": "golang.org/x/sys/unix",
			"Rev": "62bee037599929a6e9146f29d10dd5208c43507d"
		}
	]
}
